…
#big speeches
big.speeches<-filter(speeches,size>2000)

Now we can tidy! As I mentioned before Julia’s post was extremely helpful in learning how to properly leverage the tidytext package to easily tidy up the text. So we first will use the “unnest_tokens” function which helps us isolate the word tokens. Then using the magical properties of the pipe %>% we remove the stop words compiled in the tidytext package.

tidy.speeches<-big.speeches %>% unnest_tokens(word,word)
data("stop_words")
tidy.speeches <- tidy.speeches %>% anti_join(stop_words)

## Joining, by = "word"

tidy.speeches %>% count(word, sort = TRUE)

## # A tibble: 5,540 x 2
##         word     n
##        <chr> <int>
##  1       war   199
##  2     world   198
##  3    people   152
##  4   history   146
##  5  american   137
##  6   america   100
##  7    nation    98
##  8    united    95
##  9 president    88
## 10     peace    85
## # ... with 5,530 more rows
…
